{"photos":{"page":1,"pages":3,"perpage":18,"total":44,"photo":[{"id":"53269997574","owner":"199344078@N05","secret":"e391f81847","server":"65535","farm":66,"title":"Cat Paws","ispublic":1,"isfriend":0,"isfamily":0,"description":{"_content":"Cats have five toes on their front paws but only four on their back paws.' Explore the intriguing balance of nature as you discover the unique features that make our furry friends so remarkable. This fascinating tidbit sheds light on the intricate details of cat biology, revealing the duality of their adorable and agile paws. For more cat names, visit our site <a href=\"https:\/\/furryinsider.com\/\" rel=\"noreferrer nofollow\"> Furry Insider <\/a> "},"tags":"catlife catnames cat catowners cats cutecate malecat femalecat","url_s":"https:\/\/live.staticflickr.com\/65535\/53269997574_e391f81847_m.jpg","height_s":240,"width_s":240,"url_o":"https:\/\/live.staticflickr.com\/65535\/53269997574_e07e55a311_o.png","height_o":1080,"width_o":1080,"url_t":"https:\/\/live.staticflickr.com\/65535\/53269997574_e391f81847_t.jpg","height_t":100,"width_t":100,"url_m":"https:\/\/live.staticflickr.com\/65535\/53269997574_e391f81847.jpg","height_m":500,"width_m":500,"url_l":"https:\/\/live.staticflickr.com\/65535\/53269997574_e391f81847_b.jpg","height_l":1024,"width_l":1024}]},"stat":"ok"}
